'VEHICLE#','VEHICLE_CLASS','YEAR','MAKE','MODEL','VEHICLE_STATUS','WORKORDER#','LABOR_SHOP','SUBLET_SHOP','PART_SHOP','WORKORDER_DATE_IN','WORKORDER_DATE_OUT','WORKORDER_SHOP','TRANSACTION_DATE','REPAIR CODE','PART_INDEX','PARTS_QTY_ISSUED',,'IN_SHOP_HOURS','PART_DATE_RETURNED','ASSET_CREATED_DATE','REPAIR_TYPE_DESC','REPAIR_GROUP','REPAIR_COMPONENT','REPAIR_ACTION','VENDOR_CODE','VENDOR_NAME','VENDOR_INVOICE','ASSET_SHOP','ASSET_GROUP','FISCAL_YEAR','PART_NUMBER','PART_NAME','REPAIR_DESC',
'VEE12854','9250DSS',2008,'HYUNDAI','R80-7A','A',1936841059,50,' ',' ',1-13-2014 1:24 PM,2-4-2015 3:02 PM,50,7-7-2014 5:56 PM,30000001,0,0,,1.54639,0,9-5-2008 12:00 PM,'Repaired From PM Service/Electrical/System/Diagnosis/Billable/Scheduled','Electrical','System','Diagnosis',,,,50,'ROLLING STOCK','FY2015',' ',' ','MAY HEAVY EQUIP PMB',
'VEE12854','9250DSS',2008,'HYUNDAI','R80-7A','A',1936841059,50,' ',' ',1-13-2014 1:24 PM,2-4-2015 3:02 PM,50,7-8-2014 7:59 PM,30000001,0,0,,0.01722,0,9-5-2008 12:00 PM,'Repaired From PM Service/Electrical/System/Diagnosis/Billable/Scheduled','Electrical','System','Diagnosis',,,,50,'ROLLING STOCK','FY2015',' ',' ','MAY HEAVY EQUIP PMB',
'VEE12854','9250DSS',2008,'HYUNDAI','R80-7A','A',1936841059,50,' ',' ',1-13-2014 1:24 PM,2-4-2015 3:02 PM,50,7-17-2014 4:38 PM,30000001,0,0,,1.08,0,9-5-2008 12:00 PM,'Repaired From PM Service/Electrical/System/Diagnosis/Billable/Scheduled','Electrical','System','Diagnosis',,,,50,'ROLLING STOCK','FY2015',' ',' ','MAY HEAVY EQUIP PMB',
'VEE12854','9250DSS',2008,'HYUNDAI','R80-7A','A',1936841059,50,' ',' ',1-13-2014 1:24 PM,2-4-2015 3:02 PM,50,7-17-2014 7:32 PM,30000001,0,0,,0.73194,0,9-5-2008 12:00 PM,'Repaired From PM Service/Electrical/System/Diagnosis/Billable/Scheduled','Electrical','System','Diagnosis',,,,50,'ROLLING STOCK','FY2015',' ',' ','MAY HEAVY EQUIP PMB',
'VEE12854','9250DSS',2008,'HYUNDAI','R80-7A','A',1936841059,50,' ',' ',1-13-2014 1:24 PM,2-4-2015 3:02 PM,50,7-17-2014 9:27 PM,30000001,0,0,,0.39833,0,9-5-2008 12:00 PM,'Repaired From PM Service/Electrical/System/Diagnosis/Billable/Scheduled','Electrical','System','Diagnosis',,,,50,'ROLLING STOCK','FY2015',' ',' ','MAY HEAVY EQUIP PMB',
'VEE12854','9250DSS',2008,'HYUNDAI','R80-7A','A',1936841059,50,' ',' ',1-13-2014 1:24 PM,2-4-2015 3:02 PM,50,7-31-2014 7:49 PM,30000001,0,0,,2.63389,0,9-5-2008 12:00 PM,'Repaired From PM Service/Electrical/System/Diagnosis/Billable/Scheduled','Electrical','System','Diagnosis',,,,50,'ROLLING STOCK','FY2015',' ',' ','MAY HEAVY EQUIP PMB',
'VEE12854','9250DSS',2008,'HYUNDAI','R80-7A','A',1936841059,50,' ',' ',1-13-2014 1:24 PM,2-4-2015 3:02 PM,50,7-31-2014 10:37 PM,30000001,0,0,,2.36556,0,9-5-2008 12:00 PM,'Repaired From PM Service/Electrical/System/Diagnosis/Billable/Scheduled','Electrical','System','Diagnosis',,,,50,'ROLLING STOCK','FY2015',' ',' ','MAY HEAVY EQUIP PMB'